<?xml version="1.0" encoding="UTF-8"?>
<svg width="16px" height="16px" viewBox="0 0 16 16" version="1.1" xmlns="http://www.w3.org/2000/svg" xmlns:xlink="http://www.w3.org/1999/xlink">
    <!-- Generator: Sketch 58 (84663) - https://sketch.com -->
    <title>icn/snippets</title>
    <desc>Created with Sketch.</desc>
    <g id="icn/snippets" stroke="none" stroke-width="1" fill="none" fill-rule="evenodd">
        <path d="M11.168,0.945405629 C11.4743,0.485877629 12.0952,0.361703629 12.5547,0.668055629 C13.0142,0.974408629 13.1384,1.59527663 12.8321,2.05480663 L9.37707,7.23729663 L11.3107,9.91461663 C11.3445,9.96146663 11.3737,10.0103066 11.3984,10.0604066 C11.5927,10.0209066 11.7939,10.0001066 12,10.0001066 C13.6569,10.0001066 15,11.3432066 15,13.0001066 C15,14.6570066 13.6569,16.0001066 12,16.0001066 C10.34315,16.0001066 9,14.6570066 9,13.0001066 C9,12.2726066 9.25896,11.6056066 9.68974,11.0862066 L8.19288,9.01358663 L7.83207,9.55480663 C7.52571,10.0143066 6.90484,10.1385066 6.44532,9.83215663 C5.98579,9.52580663 5.86161,8.90493663 6.16797,8.44540663 L6.94296,7.28291663 L3.18933,2.08559663 C2.86598,1.63787663 2.9668,1.01278663 3.41452,0.689428629 C3.86225,0.366070629 4.48733,0.466890629 4.81069,0.914616629 L8.12715,5.50663663 L11.168,0.945405629 Z M11,13.0001066 C11,13.5524066 11.4477,14.0001066 12,14.0001066 C12.5523,14.0001066 13,13.5524066 13,13.0001066 C13,12.4478066 12.5523,12.0001066 12,12.0001066 C11.4477,12.0001066 11,12.4478066 11,13.0001066 Z M4,10.0001066 C5.65685,10.0001066 7,11.3432066 7,13.0001066 C7,14.6570066 5.65685,16.0001066 4,16.0001066 C2.34315,16.0001066 1,14.6570066 1,13.0001066 C1,11.3432066 2.34315,10.0001066 4,10.0001066 Z M3,13.0001066 C3,13.5524066 3.44772,14.0001066 4,14.0001066 C4.55228,14.0001066 5,13.5524066 5,13.0001066 C5,12.4478066 4.55228,12.0001066 4,12.0001066 C3.44772,12.0001066 3,12.4478066 3,13.0001066 Z" id="Scissors" fill="#000000"></path>
    </g>
</svg>