{
  "orientation" : 0,
  "updateDelay" : 0.29999999999999999,
  "designModeSelected" : 0,
  "cachedDeviceHeight" : 0,
  "contentScale" : 2,
  "cachedDeviceWidth" : 0,
  "deviceType" : "fullscreen",
  "sharedPrototype" : true,
  "propertyPanelToggleStates" : {

  },
  "projectId" : "1A3CCF3B-47DA-49F6-BC98-9DB69DCF3470",
  "deviceOrientation" : 0,
  "selectedHand" : "",
  "showBezel" : true,
  "foldedCodeRanges" : [
    "{106, 159}",
    "{358, 50}",
    "{464, 166}",
    "{779, 170}",
    "{1017, 175}",
    "{1262, 31}",
    "{1368, 917}",
    "{2493, 611}",
    "{3143, 56}"
  ],
  "deviceScale" : 1
}