{
  "_class": "group",
  "do_objectID": "16884011-5FE5-4474-B1E6-95AB2E9B4ECE",
  "exportOptions": {
    "_class": "exportOptions",
    "exportFormats": [
    ],
    "includedLayerIds": [
    ],
    "layerOptions": 0,
    "shouldTrim": false
  },
  "frame": {
    "_class": "rect",
    "constrainProportions": false,
    "height": 40,
    "width": 220,
    "x": 0,
    "y": 0
  },
  "hasClickThrough": false,
  "isFlippedHorizontal": false,
  "isFlippedVertical": false,
  "isLocked": false,
  "isVisible": true,
  "layerListExpandedType": 0,
  "layers": [
    {
      "class": "shapeGroup",
      "id": "E5A91A25-74B6-4FAB-B874-724936FE5D43"
    },
    {
      "class": "text",
      "id": "5DDAB390-89A5-4B34-AA93-89B85B6EF38C"
    },
    {
      "class": "group",
      "id": "ED556C0F-9488-4C33-A75C-762C5DB7EB68"
    }
  ],
  "name": "💡tab",
  "nameIsFixed": false,
  "resizingConstraint": 63,
  "resizingType": 0,
  "rotation": 0,
  "shouldBreakMaskChain": false,
  "style": {
    "_class": "style",
    "endDecorationType": 0,
    "miterLimit": 10,
    "startDecorationType": 0
  }
}