[
	{
		"objectId": "0D8CB85C-15FE-4E05-9B2B-72FD5704B835",
		"kind": "artboard",
		"name": "screen_issue",
		"originalName": "screen_issue",
		"maskFrame": null,
		"layerFrame": {
			"x": -523,
			"y": 150,
			"width": 1060,
			"height": 750
		},
		"visible": true,
		"metadata": {},
		"backgroundColor": "rgba(255, 255, 255, 1)",
		"children": [
			{
				"objectId": "9E4DE6E4-8ABE-49FA-94BF-BADA92979ABC",
				"kind": "group",
				"name": "Content",
				"originalName": "Content",
				"maskFrame": null,
				"layerFrame": {
					"x": 7,
					"y": 0,
					"width": 1051,
					"height": 856
				},
				"visible": true,
				"metadata": {
					"opacity": 1
				},
				"image": {
					"path": "images/Layer-Content-ouu0reu2.png",
					"frame": {
						"x": 7,
						"y": 0,
						"width": 1051,
						"height": 856
					}
				},
				"children": [
					{
						"objectId": "C04100F9-763E-4C9D-9CB1-9F1C52AA9685",
						"kind": "group",
						"name": "Group_2_Copy",
						"originalName": "Group 2 Copy",
						"maskFrame": null,
						"layerFrame": {
							"x": 18,
							"y": 10,
							"width": 665,
							"height": 39
						},
						"visible": true,
						"metadata": {
							"opacity": 1
						},
						"image": {
							"path": "images/Layer-Group_2_Copy-qza0mtaw.png",
							"frame": {
								"x": 18,
								"y": 10,
								"width": 665,
								"height": 39
							}
						},
						"children": []
					}
				]
			}
		]
	},
	{
		"objectId": "D9307C6B-4249-40B2-B695-419EC62277AF",
		"kind": "artboard",
		"name": "screen_issue_board",
		"originalName": "screen_issue_board",
		"maskFrame": null,
		"layerFrame": {
			"x": 637,
			"y": 150,
			"width": 1060,
			"height": 750
		},
		"visible": true,
		"metadata": {},
		"backgroundColor": "rgba(255, 255, 255, 1)",
		"children": [
			{
				"objectId": "0B9CAC3F-9550-40C5-B72E-08A40C3F6BA8",
				"kind": "group",
				"name": "Content1",
				"originalName": "Content",
				"maskFrame": null,
				"layerFrame": {
					"x": 2,
					"y": -2,
					"width": 1235,
					"height": 858
				},
				"visible": true,
				"metadata": {
					"opacity": 1
				},
				"image": {
					"path": "images/Layer-Content-mei5q0fd.png",
					"frame": {
						"x": 2,
						"y": -2,
						"width": 1235,
						"height": 858
					}
				},
				"children": [
					{
						"objectId": "8599BAD8-6BD1-424F-94CB-E7EF0426E3A9",
						"kind": "group",
						"name": "add_list_button",
						"originalName": "add-list-button",
						"maskFrame": null,
						"layerFrame": {
							"x": 881,
							"y": 10,
							"width": 67,
							"height": 33
						},
						"visible": true,
						"metadata": {
							"opacity": 1
						},
						"image": {
							"path": "images/Layer-add_list_button-odu5oujb.png",
							"frame": {
								"x": 881,
								"y": 10,
								"width": 67,
								"height": 33
							}
						},
						"children": []
					},
					{
						"objectId": "40B250C6-F079-42C1-B3F8-5F94BBDEEFD3",
						"kind": "group",
						"name": "success_secondary_button_resting",
						"originalName": "success-secondary-button--resting",
						"maskFrame": null,
						"layerFrame": {
							"x": 958,
							"y": 10,
							"width": 86,
							"height": 33
						},
						"visible": true,
						"metadata": {
							"opacity": 1
						},
						"image": {
							"path": "images/Layer-success_secondary_button_resting-ndbcmjuw.png",
							"frame": {
								"x": 958,
								"y": 10,
								"width": 86,
								"height": 33
							}
						},
						"children": []
					},
					{
						"objectId": "C4005641-1E19-4E32-9195-BF7AE0026938",
						"kind": "group",
						"name": "board_dropdown",
						"originalName": "board-dropdown",
						"maskFrame": null,
						"layerFrame": {
							"x": 180,
							"y": 10,
							"width": 130,
							"height": 33
						},
						"visible": true,
						"metadata": {
							"opacity": 1
						},
						"image": {
							"path": "images/Layer-board_dropdown-qzqwmdu2.png",
							"frame": {
								"x": 180,
								"y": 10,
								"width": 130,
								"height": 33
							}
						},
						"children": []
					},
					{
						"objectId": "906CE9A6-1511-4B7E-82D8-7B081EFEC9D1",
						"kind": "group",
						"name": "search_field",
						"originalName": "search-field",
						"maskFrame": null,
						"layerFrame": {
							"x": 320,
							"y": 10,
							"width": 551,
							"height": 33
						},
						"visible": true,
						"metadata": {
							"opacity": 1
						},
						"image": {
							"path": "images/Layer-search_field-ota2q0u5.png",
							"frame": {
								"x": 320,
								"y": 10,
								"width": 551,
								"height": 33
							}
						},
						"children": []
					},
					{
						"objectId": "69F002DC-FB1A-4053-81E4-3D797464050A",
						"kind": "group",
						"name": "Group_2_Copy1",
						"originalName": "Group 2 Copy",
						"maskFrame": null,
						"layerFrame": {
							"x": 17,
							"y": 19,
							"width": 152,
							"height": 17
						},
						"visible": true,
						"metadata": {
							"opacity": 1
						},
						"image": {
							"path": "images/Layer-Group_2_Copy-njlgmday.png",
							"frame": {
								"x": 17,
								"y": 19,
								"width": 152,
								"height": 17
							}
						},
						"children": []
					}
				]
			}
		]
	},
	{
		"objectId": "D927BBA2-D934-4F66-A734-06D96FFB3ED5",
		"kind": "artboard",
		"name": "screen_issues_list",
		"originalName": "screen_issues_list",
		"maskFrame": null,
		"layerFrame": {
			"x": 1797,
			"y": 150,
			"width": 1060,
			"height": 750
		},
		"visible": true,
		"metadata": {},
		"backgroundColor": "rgba(255, 255, 255, 1)",
		"children": [
			{
				"objectId": "D108D402-7953-40F9-AA46-16F5CE5DC0DB",
				"kind": "group",
				"name": "content",
				"originalName": "content",
				"maskFrame": null,
				"layerFrame": {
					"x": -1,
					"y": -2,
					"width": 1058,
					"height": 1556
				},
				"visible": true,
				"metadata": {
					"opacity": 1
				},
				"children": [
					{
						"objectId": "96ED92D4-6B8F-4425-B9FD-640B19F717A2",
						"kind": "group",
						"name": "Group",
						"originalName": "Group",
						"maskFrame": null,
						"layerFrame": {
							"x": -1,
							"y": -2,
							"width": 1058,
							"height": 1556
						},
						"visible": true,
						"metadata": {
							"opacity": 1
						},
						"image": {
							"path": "images/Layer-Group-otzfrdky.png",
							"frame": {
								"x": -1,
								"y": -2,
								"width": 1058,
								"height": 1556
							}
						},
						"children": [
							{
								"objectId": "3DF9E059-EF2C-4276-B755-7ABA391EF6F1",
								"kind": "group",
								"name": "new_issue_button",
								"originalName": "new_issue_button",
								"maskFrame": null,
								"layerFrame": {
									"x": 947,
									"y": 6,
									"width": 100,
									"height": 42
								},
								"visible": true,
								"metadata": {
									"opacity": 1
								},
								"image": {
									"path": "images/Layer-new_issue_button-m0rgouuw.jpg",
									"frame": {
										"x": 947,
										"y": 6,
										"width": 100,
										"height": 42
									}
								},
								"children": []
							}
						]
					},
					{
						"objectId": "0816D064-244F-4448-9F21-D4E1001628FF",
						"kind": "group",
						"name": "breadcrumbs_bar",
						"originalName": "breadcrumbs-bar",
						"maskFrame": null,
						"layerFrame": {
							"x": 15,
							"y": -2,
							"width": 1028,
							"height": 58
						},
						"visible": true,
						"metadata": {
							"opacity": 1
						},
						"image": {
							"path": "images/Layer-breadcrumbs_bar-mdgxnkqw.png",
							"frame": {
								"x": 15,
								"y": -2,
								"width": 1028,
								"height": 58
							}
						},
						"children": [
							{
								"objectId": "3530078E-259C-4E7B-8047-7E8620D089BE",
								"kind": "group",
								"name": "breadcrumbs",
								"originalName": "breadcrumbs",
								"maskFrame": null,
								"layerFrame": {
									"x": 16,
									"y": 19,
									"width": 111,
									"height": 17
								},
								"visible": true,
								"metadata": {
									"opacity": 1
								},
								"image": {
									"path": "images/Layer-breadcrumbs-mzuzmda3.png",
									"frame": {
										"x": 16,
										"y": 19,
										"width": 111,
										"height": 17
									}
								},
								"children": []
							},
							{
								"objectId": "58E5F73C-C26A-4B60-AA60-001F114AEFBA",
								"kind": "group",
								"name": "new_merge_request_button",
								"originalName": "new-merge-request-button",
								"maskFrame": null,
								"layerFrame": {
									"x": 875,
									"y": 8,
									"width": 69,
									"height": 35
								},
								"visible": false,
								"metadata": {
									"opacity": 1
								},
								"image": {
									"path": "images/Layer-new_merge_request_button-nthfnuy3.png",
									"frame": {
										"x": 875,
										"y": 8,
										"width": 69,
										"height": 35
									}
								},
								"children": []
							},
							{
								"objectId": "D0D2838E-4792-4778-8559-678F548300D8",
								"kind": "group",
								"name": "new_merge_request_button1",
								"originalName": "new-merge-request-button",
								"maskFrame": null,
								"layerFrame": {
									"x": 953,
									"y": 8,
									"width": 90,
									"height": 35
								},
								"visible": false,
								"metadata": {
									"opacity": 1
								},
								"image": {
									"path": "images/Layer-new_merge_request_button-rdbemjgz.png",
									"frame": {
										"x": 953,
										"y": 8,
										"width": 90,
										"height": 35
									}
								},
								"children": []
							}
						]
					},
					{
						"objectId": "756688DB-DAC1-42C4-95C0-570577A8936B",
						"kind": "group",
						"name": "screenshots",
						"originalName": "screenshots",
						"maskFrame": null,
						"layerFrame": {
							"x": 853,
							"y": 64,
							"width": 195,
							"height": 42
						},
						"visible": true,
						"metadata": {
							"opacity": 1
						},
						"image": {
							"path": "images/Layer-screenshots-nzu2njg4.png",
							"frame": {
								"x": 853,
								"y": 64,
								"width": 195,
								"height": 42
							}
						},
						"children": []
					}
				]
			}
		]
	},
	{
		"objectId": "CB07A487-DF4F-4DF6-94B0-A59309F831E4",
		"kind": "artboard",
		"name": "screen_merge_requests_list",
		"originalName": "screen_merge_requests_list",
		"maskFrame": null,
		"layerFrame": {
			"x": 2957,
			"y": 150,
			"width": 1060,
			"height": 750
		},
		"visible": true,
		"metadata": {},
		"backgroundColor": "rgba(255, 255, 255, 1)",
		"children": [
			{
				"objectId": "34B76530-0274-4E99-BECB-362B473F65C7",
				"kind": "group",
				"name": "content1",
				"originalName": "content",
				"maskFrame": null,
				"layerFrame": {
					"x": -1,
					"y": -2,
					"width": 1058,
					"height": 1556
				},
				"visible": true,
				"metadata": {
					"opacity": 1
				},
				"children": [
					{
						"objectId": "E0CFF03D-9614-4B76-812B-B605E764BF2B",
						"kind": "group",
						"name": "Group1",
						"originalName": "Group",
						"maskFrame": null,
						"layerFrame": {
							"x": -1,
							"y": 2,
							"width": 1058,
							"height": 1552
						},
						"visible": true,
						"metadata": {
							"opacity": 1
						},
						"image": {
							"path": "images/Layer-Group-rtbdrkyw.png",
							"frame": {
								"x": -1,
								"y": 2,
								"width": 1058,
								"height": 1552
							}
						},
						"children": [
							{
								"objectId": "0132B2AE-C0C2-4459-A9E1-5EDDD39BF149",
								"kind": "group",
								"name": "new_issue_button1",
								"originalName": "new_issue_button",
								"maskFrame": null,
								"layerFrame": {
									"x": 947,
									"y": 6,
									"width": 100,
									"height": 42
								},
								"visible": true,
								"metadata": {
									"opacity": 1
								},
								"image": {
									"path": "images/Layer-new_issue_button-mdezmkiy.jpg",
									"frame": {
										"x": 947,
										"y": 6,
										"width": 100,
										"height": 42
									}
								},
								"children": []
							}
						]
					},
					{
						"objectId": "175FE228-4A56-458D-89E2-4E3037DF9094",
						"kind": "group",
						"name": "breadcrumbs_bar1",
						"originalName": "breadcrumbs-bar",
						"maskFrame": null,
						"layerFrame": {
							"x": 15,
							"y": -2,
							"width": 1028,
							"height": 58
						},
						"visible": true,
						"metadata": {
							"opacity": 1
						},
						"image": {
							"path": "images/Layer-breadcrumbs_bar-mtc1rkuy.png",
							"frame": {
								"x": 15,
								"y": -2,
								"width": 1028,
								"height": 58
							}
						},
						"children": [
							{
								"objectId": "0F3FC0D8-E0CD-4B4B-A538-815A7F66884E",
								"kind": "group",
								"name": "breadcrumbs1",
								"originalName": "breadcrumbs",
								"maskFrame": null,
								"layerFrame": {
									"x": 16,
									"y": 19,
									"width": 191,
									"height": 19
								},
								"visible": true,
								"metadata": {
									"opacity": 1
								},
								"image": {
									"path": "images/Layer-breadcrumbs-meyzrkmw.png",
									"frame": {
										"x": 16,
										"y": 19,
										"width": 191,
										"height": 19
									}
								},
								"children": []
							},
							{
								"objectId": "ACFE1C19-5A89-4D34-A6FB-B3C74539BBB6",
								"kind": "group",
								"name": "new_merge_request_button2",
								"originalName": "new-merge-request-button",
								"maskFrame": null,
								"layerFrame": {
									"x": 875,
									"y": 8,
									"width": 69,
									"height": 35
								},
								"visible": false,
								"metadata": {
									"opacity": 1
								},
								"image": {
									"path": "images/Layer-new_merge_request_button-qungrtfd.png",
									"frame": {
										"x": 875,
										"y": 8,
										"width": 69,
										"height": 35
									}
								},
								"children": []
							},
							{
								"objectId": "4B49898A-F56C-42D4-BC6A-792A77AE0EBF",
								"kind": "group",
								"name": "new_merge_request_button3",
								"originalName": "new-merge-request-button",
								"maskFrame": null,
								"layerFrame": {
									"x": 953,
									"y": 8,
									"width": 90,
									"height": 35
								},
								"visible": false,
								"metadata": {
									"opacity": 1
								},
								"image": {
									"path": "images/Layer-new_merge_request_button-nei0otg5.png",
									"frame": {
										"x": 953,
										"y": 8,
										"width": 90,
										"height": 35
									}
								},
								"children": []
							}
						]
					},
					{
						"objectId": "98E22A46-B365-473A-A2D5-630407445479",
						"kind": "group",
						"name": "screenshots1",
						"originalName": "screenshots",
						"maskFrame": null,
						"layerFrame": {
							"x": 853,
							"y": 64,
							"width": 195,
							"height": 42
						},
						"visible": true,
						"metadata": {
							"opacity": 1
						},
						"image": {
							"path": "images/Layer-screenshots-othfmjjb.png",
							"frame": {
								"x": 853,
								"y": 64,
								"width": 195,
								"height": 42
							}
						},
						"children": []
					}
				]
			}
		]
	},
	{
		"objectId": "619D8AEF-3676-4E67-9933-5C37EC52507B",
		"kind": "artboard",
		"name": "screen_project_home",
		"originalName": "screen_project_home",
		"maskFrame": null,
		"layerFrame": {
			"x": 4117,
			"y": 150,
			"width": 1060,
			"height": 750
		},
		"visible": true,
		"metadata": {},
		"backgroundColor": "rgba(255, 255, 255, 1)",
		"children": [
			{
				"objectId": "A4F4CD4B-0224-45A4-ACD1-F63DBEDDD552",
				"kind": "group",
				"name": "content2",
				"originalName": "content",
				"maskFrame": null,
				"layerFrame": {
					"x": -158,
					"y": -2,
					"width": 1376,
					"height": 1040
				},
				"visible": true,
				"metadata": {
					"opacity": 1
				},
				"image": {
					"path": "images/Layer-content-qtrgnene.png",
					"frame": {
						"x": -158,
						"y": -2,
						"width": 1376,
						"height": 1040
					}
				},
				"children": [
					{
						"objectId": "AD276A9F-9814-4188-AFC1-4A7E8652828B",
						"kind": "group",
						"name": "Group2",
						"originalName": "Group",
						"maskFrame": null,
						"layerFrame": {
							"x": -1,
							"y": -2,
							"width": 1058,
							"height": 1556
						},
						"visible": false,
						"metadata": {
							"opacity": 1
						},
						"image": {
							"path": "images/Layer-Group-quqynzzb.png",
							"frame": {
								"x": -1,
								"y": -2,
								"width": 1058,
								"height": 1556
							}
						},
						"children": [
							{
								"objectId": "AD64C007-AEC7-440B-A7A1-72C7A1735B4C",
								"kind": "group",
								"name": "new_issue_button2",
								"originalName": "new_issue_button",
								"maskFrame": null,
								"layerFrame": {
									"x": 947,
									"y": 6,
									"width": 100,
									"height": 42
								},
								"visible": true,
								"metadata": {
									"opacity": 1
								},
								"image": {
									"path": "images/Layer-new_issue_button-quq2nemw.jpg",
									"frame": {
										"x": 947,
										"y": 6,
										"width": 100,
										"height": 42
									}
								},
								"children": []
							}
						]
					},
					{
						"objectId": "E16FA4E4-8F68-4B8A-B4AB-702E55892893",
						"kind": "group",
						"name": "breadcrumbs_bar2",
						"originalName": "breadcrumbs-bar",
						"maskFrame": null,
						"layerFrame": {
							"x": 15,
							"y": -2,
							"width": 1028,
							"height": 58
						},
						"visible": true,
						"metadata": {
							"opacity": 1
						},
						"image": {
							"path": "images/Layer-breadcrumbs_bar-rte2rke0.png",
							"frame": {
								"x": 15,
								"y": -2,
								"width": 1028,
								"height": 58
							}
						},
						"children": [
							{
								"objectId": "A4698A8F-2B7C-47B5-BD22-CB898F3A7E07",
								"kind": "group",
								"name": "breadcrumbs2",
								"originalName": "breadcrumbs",
								"maskFrame": null,
								"layerFrame": {
									"x": 16,
									"y": 19,
									"width": 143,
									"height": 19
								},
								"visible": true,
								"metadata": {
									"opacity": 1
								},
								"image": {
									"path": "images/Layer-breadcrumbs-qtq2othb.png",
									"frame": {
										"x": 16,
										"y": 19,
										"width": 143,
										"height": 19
									}
								},
								"children": []
							},
							{
								"objectId": "96CBA7C8-7598-4432-BF42-6BF02B984A26",
								"kind": "group",
								"name": "new_merge_request_button4",
								"originalName": "new-merge-request-button",
								"maskFrame": null,
								"layerFrame": {
									"x": 875,
									"y": 8,
									"width": 69,
									"height": 35
								},
								"visible": false,
								"metadata": {
									"opacity": 1
								},
								"image": {
									"path": "images/Layer-new_merge_request_button-otzdqke3.png",
									"frame": {
										"x": 875,
										"y": 8,
										"width": 69,
										"height": 35
									}
								},
								"children": []
							},
							{
								"objectId": "C798BE27-FA90-4C4A-8006-BE90E9D5ABF8",
								"kind": "group",
								"name": "new_merge_request_button5",
								"originalName": "new-merge-request-button",
								"maskFrame": null,
								"layerFrame": {
									"x": 953,
									"y": 8,
									"width": 90,
									"height": 35
								},
								"visible": false,
								"metadata": {
									"opacity": 1
								},
								"image": {
									"path": "images/Layer-new_merge_request_button-qzc5oejf.png",
									"frame": {
										"x": 953,
										"y": 8,
										"width": 90,
										"height": 35
									}
								},
								"children": []
							}
						]
					},
					{
						"objectId": "6D941221-2E84-466A-B90D-232660CBD8F1",
						"kind": "group",
						"name": "screenshots2",
						"originalName": "screenshots",
						"maskFrame": null,
						"layerFrame": {
							"x": 853,
							"y": 64,
							"width": 195,
							"height": 42
						},
						"visible": false,
						"metadata": {
							"opacity": 1
						},
						"image": {
							"path": "images/Layer-screenshots-nkq5ndey.png",
							"frame": {
								"x": 853,
								"y": 64,
								"width": 195,
								"height": 42
							}
						},
						"children": []
					}
				]
			}
		]
	},
	{
		"objectId": "2813A0DB-1E0F-4808-AC7F-138263D31125",
		"kind": "artboard",
		"name": "screen_group_home",
		"originalName": "screen_group_home",
		"maskFrame": null,
		"layerFrame": {
			"x": 5277,
			"y": 150,
			"width": 1060,
			"height": 750
		},
		"visible": true,
		"metadata": {},
		"backgroundColor": "rgba(255, 255, 255, 1)",
		"children": [
			{
				"objectId": "E6153E18-D8BB-475A-87F8-DE63685164F1",
				"kind": "group",
				"name": "content3",
				"originalName": "content",
				"maskFrame": null,
				"layerFrame": {
					"x": 15,
					"y": -2,
					"width": 1028,
					"height": 58
				},
				"visible": true,
				"metadata": {
					"opacity": 1
				},
				"children": [
					{
						"objectId": "C0A9E2F9-4119-402F-81D5-CE3D62882FEF",
						"kind": "group",
						"name": "breadcrumbs_bar3",
						"originalName": "breadcrumbs-bar",
						"maskFrame": null,
						"layerFrame": {
							"x": 15,
							"y": -2,
							"width": 1028,
							"height": 58
						},
						"visible": true,
						"metadata": {
							"opacity": 1
						},
						"image": {
							"path": "images/Layer-breadcrumbs_bar-qzbbouuy.png",
							"frame": {
								"x": 15,
								"y": -2,
								"width": 1028,
								"height": 58
							}
						},
						"children": [
							{
								"objectId": "AA435ADA-2E56-46C0-BBC2-105E98580ACB",
								"kind": "group",
								"name": "breadcrumbs3",
								"originalName": "breadcrumbs",
								"maskFrame": null,
								"layerFrame": {
									"x": 16,
									"y": 20,
									"width": 136,
									"height": 17
								},
								"visible": true,
								"metadata": {
									"opacity": 1
								},
								"image": {
									"path": "images/Layer-breadcrumbs-que0mzvb.png",
									"frame": {
										"x": 16,
										"y": 20,
										"width": 136,
										"height": 17
									}
								},
								"children": []
							},
							{
								"objectId": "A8FC4647-7BD0-427A-A11E-B2A4FFD62405",
								"kind": "group",
								"name": "new_merge_request_button6",
								"originalName": "new-merge-request-button",
								"maskFrame": null,
								"layerFrame": {
									"x": 875,
									"y": 8,
									"width": 69,
									"height": 35
								},
								"visible": false,
								"metadata": {
									"opacity": 1
								},
								"image": {
									"path": "images/Layer-new_merge_request_button-qthgqzq2.png",
									"frame": {
										"x": 875,
										"y": 8,
										"width": 69,
										"height": 35
									}
								},
								"children": []
							},
							{
								"objectId": "47441840-D806-441B-B96B-200DA8209346",
								"kind": "group",
								"name": "new_merge_request_button7",
								"originalName": "new-merge-request-button",
								"maskFrame": null,
								"layerFrame": {
									"x": 953,
									"y": 8,
									"width": 90,
									"height": 35
								},
								"visible": false,
								"metadata": {
									"opacity": 1
								},
								"image": {
									"path": "images/Layer-new_merge_request_button-ndc0nde4.png",
									"frame": {
										"x": 953,
										"y": 8,
										"width": 90,
										"height": 35
									}
								},
								"children": []
							}
						]
					}
				]
			}
		]
	},
	{
		"objectId": "53F03699-942F-44AE-8A44-A27CBD9C55D8",
		"kind": "artboard",
		"name": "sidebar",
		"originalName": "sidebar",
		"maskFrame": null,
		"layerFrame": {
			"x": -2193,
			"y": 150,
			"width": 220,
			"height": 750
		},
		"visible": true,
		"metadata": {},
		"backgroundColor": "rgba(255, 255, 255, 1)",
		"children": [
			{
				"objectId": "69E30B54-96E6-4ADA-B168-3E4AD60A46CF",
				"kind": "group",
				"name": "bg",
				"originalName": "bg",
				"maskFrame": null,
				"layerFrame": {
					"x": 0,
					"y": 0,
					"width": 220,
					"height": 750
				},
				"visible": true,
				"metadata": {
					"opacity": 1
				},
				"image": {
					"path": "images/Layer-bg-njlfmzbc.png",
					"frame": {
						"x": 0,
						"y": 0,
						"width": 220,
						"height": 750
					}
				},
				"children": []
			}
		]
	},
	{
		"objectId": "17591D0B-FBF5-4A30-B101-6A56F7FFB5C6",
		"kind": "artboard",
		"name": "topbar",
		"originalName": "topbar",
		"maskFrame": null,
		"layerFrame": {
			"x": -3610,
			"y": 100,
			"width": 1280,
			"height": 50
		},
		"visible": true,
		"metadata": {},
		"backgroundColor": "rgba(255, 255, 255, 1)",
		"children": [
			{
				"objectId": "1E222E4F-C1D1-43F0-A95F-F4E694FC7410",
				"kind": "group",
				"name": "sidebar_button",
				"originalName": "sidebar_button",
				"maskFrame": null,
				"layerFrame": {
					"x": 5,
					"y": 2,
					"width": 40,
					"height": 44
				},
				"visible": true,
				"metadata": {
					"opacity": 1
				},
				"image": {
					"path": "images/Layer-sidebar_button-muuymjjf.jpg",
					"frame": {
						"x": 5,
						"y": 2,
						"width": 40,
						"height": 44
					}
				},
				"children": []
			},
			{
				"objectId": "E7496CF0-7FB2-45FE-87AF-3597F775AD8E",
				"kind": "group",
				"name": "gitlab_logo",
				"originalName": "gitlab_logo",
				"maskFrame": null,
				"layerFrame": {
					"x": 49,
					"y": 12,
					"width": 29,
					"height": 26
				},
				"visible": true,
				"metadata": {
					"opacity": 1
				},
				"image": {
					"path": "images/Layer-gitlab_logo-rtc0otzd.png",
					"frame": {
						"x": 49,
						"y": 12,
						"width": 29,
						"height": 26
					}
				},
				"children": []
			},
			{
				"objectId": "FA149357-B179-43B6-A952-B05B9C975653",
				"kind": "group",
				"name": "global_breadcrumbs",
				"originalName": "global_breadcrumbs",
				"maskFrame": null,
				"layerFrame": {
					"x": 92,
					"y": 17,
					"width": 322,
					"height": 19
				},
				"visible": true,
				"metadata": {
					"opacity": 1
				},
				"image": {
					"path": "images/Layer-global_breadcrumbs-rkexndkz.png",
					"frame": {
						"x": 92,
						"y": 17,
						"width": 322,
						"height": 19
					}
				},
				"children": [
					{
						"objectId": "7A51AFD7-25E9-40C9-B0D7-45534378AD12",
						"kind": "text",
						"name": "project_selector",
						"originalName": "project_selector",
						"maskFrame": null,
						"layerFrame": {
							"x": 199,
							"y": 17,
							"width": 215,
							"height": 18
						},
						"visible": true,
						"metadata": {
							"opacity": 1,
							"string": "GitLab Community Edition",
							"css": [
								"/* title copy: */",
								"font-family: SourceSansPro-Semibold;",
								"font-size: 19px;",
								"color: #5C5C5C;",
								"letter-spacing: 0;"
							]
						},
						"image": {
							"path": "images/Layer-project_selector-n0e1mufg.png",
							"frame": {
								"x": 199,
								"y": 17,
								"width": 215,
								"height": 18
							}
						},
						"children": []
					},
					{
						"objectId": "5583840D-0727-428E-BA6F-8FDC9751B1AA",
						"kind": "text",
						"name": "group_selector",
						"originalName": "group_selector",
						"maskFrame": null,
						"layerFrame": {
							"x": 92,
							"y": 17,
							"width": 82,
							"height": 19
						},
						"visible": true,
						"metadata": {
							"opacity": 1,
							"string": "GitLab.org",
							"css": [
								"/* title: */",
								"font-family: SourceSansPro-Regular;",
								"font-size: 19px;",
								"color: #5C5C5C;",
								"letter-spacing: 0;"
							]
						},
						"image": {
							"path": "images/Layer-group_selector-ntu4mzg0.png",
							"frame": {
								"x": 92,
								"y": 17,
								"width": 82,
								"height": 19
							}
						},
						"children": []
					}
				]
			},
			{
				"objectId": "509127C3-9DDB-4817-AEB1-192A8EE346F0",
				"kind": "group",
				"name": "search_bar",
				"originalName": "search_bar",
				"maskFrame": null,
				"layerFrame": {
					"x": 431,
					"y": 7,
					"width": 244,
					"height": 35
				},
				"visible": true,
				"metadata": {
					"opacity": 1
				},
				"image": {
					"path": "images/Layer-search_bar-nta5mti3.png",
					"frame": {
						"x": 431,
						"y": 7,
						"width": 244,
						"height": 35
					}
				},
				"children": []
			},
			{
				"objectId": "73959616-61B1-433D-B6E7-7C7BA20FA0BB",
				"kind": "group",
				"name": "plus_button",
				"originalName": "plus_button",
				"maskFrame": null,
				"layerFrame": {
					"x": 690,
					"y": 17,
					"width": 29,
					"height": 14
				},
				"visible": true,
				"metadata": {
					"opacity": 1
				},
				"image": {
					"path": "images/Layer-plus_button-nzm5ntk2.png",
					"frame": {
						"x": 690,
						"y": 17,
						"width": 29,
						"height": 14
					}
				},
				"children": []
			},
			{
				"objectId": "C6344E91-B5A8-49B6-981A-C4F694850857",
				"kind": "group",
				"name": "exploration_buttons",
				"originalName": "exploration_buttons",
				"maskFrame": null,
				"layerFrame": {
					"x": 735,
					"y": 18,
					"width": 289,
					"height": 17
				},
				"visible": true,
				"metadata": {
					"opacity": 1
				},
				"image": {
					"path": "images/Layer-exploration_buttons-qzyzndrf.png",
					"frame": {
						"x": 735,
						"y": 18,
						"width": 289,
						"height": 17
					}
				},
				"children": []
			},
			{
				"objectId": "5A27D35B-4C17-4330-A67D-02060B747C93",
				"kind": "group",
				"name": "counters",
				"originalName": "counters",
				"maskFrame": null,
				"layerFrame": {
					"x": 1075,
					"y": -2,
					"width": 145,
					"height": 53
				},
				"visible": true,
				"metadata": {
					"opacity": 1
				},
				"image": {
					"path": "images/Layer-counters-nueyn0qz.jpg",
					"frame": {
						"x": 1075,
						"y": -2,
						"width": 145,
						"height": 53
					}
				},
				"children": []
			},
			{
				"objectId": "31A9D7B1-0F3A-4B07-98B6-B1388EFE88E6",
				"kind": "group",
				"name": "profile",
				"originalName": "profile",
				"maskFrame": null,
				"layerFrame": {
					"x": 1227,
					"y": 11,
					"width": 40,
					"height": 26
				},
				"visible": true,
				"metadata": {
					"opacity": 1
				},
				"image": {
					"path": "images/Layer-profile-mzfbouq3.png",
					"frame": {
						"x": 1227,
						"y": 11,
						"width": 40,
						"height": 26
					}
				},
				"children": [
					{
						"objectId": "62099829-EB2E-4F77-A64B-459DA7A3B905",
						"kind": "group",
						"name": "user_picture",
						"originalName": "user_picture",
						"maskFrame": {
							"x": 0,
							"y": 0,
							"width": 26,
							"height": 26
						},
						"layerFrame": {
							"x": 1227,
							"y": 11,
							"width": 26,
							"height": 26
						},
						"visible": true,
						"metadata": {
							"opacity": 1
						},
						"image": {
							"path": "images/Layer-user_picture-njiwotk4.png",
							"frame": {
								"x": 1227,
								"y": 11,
								"width": 26,
								"height": 26
							}
						},
						"children": []
					}
				]
			},
			{
				"objectId": "47C87EB3-112E-4D1D-AD81-F29E6CDF2BB1",
				"kind": "group",
				"name": "bg1",
				"originalName": "bg",
				"maskFrame": null,
				"layerFrame": {
					"x": 0,
					"y": 0,
					"width": 1280,
					"height": 50
				},
				"visible": true,
				"metadata": {
					"opacity": 1
				},
				"image": {
					"path": "images/Layer-bg-ndddoddf.png",
					"frame": {
						"x": 0,
						"y": 0,
						"width": 1280,
						"height": 50
					}
				},
				"children": []
			}
		]
	},
	{
		"objectId": "884633A4-FE4A-4133-8781-EC540B9B0D0B",
		"kind": "artboard",
		"name": "topbar_group",
		"originalName": "topbar_group",
		"maskFrame": null,
		"layerFrame": {
			"x": -1836,
			"y": 100,
			"width": 1280,
			"height": 50
		},
		"visible": true,
		"metadata": {},
		"backgroundColor": "rgba(255, 255, 255, 1)",
		"children": [
			{
				"objectId": "C33D5ABF-AEAF-4869-B817-70931E2E7189",
				"kind": "group",
				"name": "sidebar_button1",
				"originalName": "sidebar_button",
				"maskFrame": null,
				"layerFrame": {
					"x": 5,
					"y": 2,
					"width": 40,
					"height": 44
				},
				"visible": true,
				"metadata": {
					"opacity": 1
				},
				"image": {
					"path": "images/Layer-sidebar_button-qzmzrdvb.jpg",
					"frame": {
						"x": 5,
						"y": 2,
						"width": 40,
						"height": 44
					}
				},
				"children": []
			},
			{
				"objectId": "87B3BF67-54EC-47BA-A8FD-E26778B784FA",
				"kind": "group",
				"name": "gitlab_logo1",
				"originalName": "gitlab_logo",
				"maskFrame": null,
				"layerFrame": {
					"x": 49,
					"y": 12,
					"width": 29,
					"height": 26
				},
				"visible": true,
				"metadata": {
					"opacity": 1
				},
				"image": {
					"path": "images/Layer-gitlab_logo-oddcm0jg.png",
					"frame": {
						"x": 49,
						"y": 12,
						"width": 29,
						"height": 26
					}
				},
				"children": []
			},
			{
				"objectId": "D14D428E-034D-43DD-B547-6A63CF21CF0F",
				"kind": "group",
				"name": "global_breadcrumbs1",
				"originalName": "global_breadcrumbs",
				"maskFrame": null,
				"layerFrame": {
					"x": 91,
					"y": 17,
					"width": 87,
					"height": 19
				},
				"visible": true,
				"metadata": {
					"opacity": 1
				},
				"children": [
					{
						"objectId": "D236B790-4B60-4197-8BDE-1DD81DBB8BE6",
						"kind": "text",
						"name": "group_selector1",
						"originalName": "group_selector",
						"maskFrame": null,
						"layerFrame": {
							"x": 91,
							"y": 17,
							"width": 87,
							"height": 19
						},
						"visible": true,
						"metadata": {
							"opacity": 1,
							"string": "GitLab.org",
							"css": [
								"/* title: */",
								"font-family: SourceSansPro-Semibold;",
								"font-size: 19px;",
								"color: #5C5C5C;",
								"letter-spacing: 0;"
							]
						},
						"image": {
							"path": "images/Layer-group_selector-rdiznki3.png",
							"frame": {
								"x": 91,
								"y": 17,
								"width": 87,
								"height": 19
							}
						},
						"children": []
					}
				]
			},
			{
				"objectId": "01ACD5BE-4F72-406A-AF31-BA7108320B9D",
				"kind": "group",
				"name": "search_bar1",
				"originalName": "search_bar",
				"maskFrame": null,
				"layerFrame": {
					"x": 194,
					"y": 7,
					"width": 244,
					"height": 35
				},
				"visible": true,
				"metadata": {
					"opacity": 1
				},
				"image": {
					"path": "images/Layer-search_bar-mdfbq0q1.png",
					"frame": {
						"x": 194,
						"y": 7,
						"width": 244,
						"height": 35
					}
				},
				"children": []
			},
			{
				"objectId": "C36B8F81-E3E4-4320-85C1-6A2459591B0D",
				"kind": "group",
				"name": "plus_button1",
				"originalName": "plus_button",
				"maskFrame": null,
				"layerFrame": {
					"x": 453,
					"y": 17,
					"width": 29,
					"height": 14
				},
				"visible": true,
				"metadata": {
					"opacity": 1
				},
				"image": {
					"path": "images/Layer-plus_button-qzm2qjhg.png",
					"frame": {
						"x": 453,
						"y": 17,
						"width": 29,
						"height": 14
					}
				},
				"children": []
			},
			{
				"objectId": "946DB4C7-A197-4813-A45F-592E7A2C76FA",
				"kind": "group",
				"name": "exploration_buttons1",
				"originalName": "exploration_buttons",
				"maskFrame": null,
				"layerFrame": {
					"x": 498,
					"y": 18,
					"width": 289,
					"height": 17
				},
				"visible": true,
				"metadata": {
					"opacity": 1
				},
				"image": {
					"path": "images/Layer-exploration_buttons-otq2rei0.png",
					"frame": {
						"x": 498,
						"y": 18,
						"width": 289,
						"height": 17
					}
				},
				"children": []
			},
			{
				"objectId": "9C11BEEE-D001-4BD8-8F3C-3AAB57E0BD2C",
				"kind": "group",
				"name": "counters1",
				"originalName": "counters",
				"maskFrame": null,
				"layerFrame": {
					"x": 1075,
					"y": -2,
					"width": 145,
					"height": 53
				},
				"visible": true,
				"metadata": {
					"opacity": 1
				},
				"image": {
					"path": "images/Layer-counters-oumxmujf.jpg",
					"frame": {
						"x": 1075,
						"y": -2,
						"width": 145,
						"height": 53
					}
				},
				"children": []
			},
			{
				"objectId": "E6D77ACA-6137-4FB6-8DE9-90C58A19998B",
				"kind": "group",
				"name": "profile1",
				"originalName": "profile",
				"maskFrame": null,
				"layerFrame": {
					"x": 1227,
					"y": 11,
					"width": 40,
					"height": 26
				},
				"visible": true,
				"metadata": {
					"opacity": 1
				},
				"image": {
					"path": "images/Layer-profile-rtzenzdb.png",
					"frame": {
						"x": 1227,
						"y": 11,
						"width": 40,
						"height": 26
					}
				},
				"children": [
					{
						"objectId": "0C26DD10-F2D9-4C36-9483-4A3A45307EAA",
						"kind": "group",
						"name": "user_picture1",
						"originalName": "user_picture",
						"maskFrame": {
							"x": 0,
							"y": 0,
							"width": 26,
							"height": 26
						},
						"layerFrame": {
							"x": 1227,
							"y": 11,
							"width": 26,
							"height": 26
						},
						"visible": true,
						"metadata": {
							"opacity": 1
						},
						"image": {
							"path": "images/Layer-user_picture-memynkre.png",
							"frame": {
								"x": 1227,
								"y": 11,
								"width": 26,
								"height": 26
							}
						},
						"children": []
					}
				]
			},
			{
				"objectId": "F8CA0121-178A-4278-B8B1-286EB61B7B70",
				"kind": "group",
				"name": "bg2",
				"originalName": "bg",
				"maskFrame": null,
				"layerFrame": {
					"x": 0,
					"y": 0,
					"width": 1280,
					"height": 50
				},
				"visible": true,
				"metadata": {
					"opacity": 1
				},
				"image": {
					"path": "images/Layer-bg-rjhdqtax.png",
					"frame": {
						"x": 0,
						"y": 0,
						"width": 1280,
						"height": 50
					}
				},
				"children": []
			}
		]
	},
	{
		"objectId": "A1F56317-72BE-4326-9705-7ACA9C214211",
		"kind": "artboard",
		"name": "sidebar_group",
		"originalName": "sidebar_group",
		"maskFrame": null,
		"layerFrame": {
			"x": 6453,
			"y": 150,
			"width": 220,
			"height": 750
		},
		"visible": true,
		"metadata": {},
		"backgroundColor": "rgba(255, 255, 255, 1)",
		"children": [
			{
				"objectId": "38E7A90F-3046-4F4C-9E66-EB788CC9D687",
				"kind": "text",
				"name": "Group_6",
				"originalName": "Group 6",
				"maskFrame": null,
				"layerFrame": {
					"x": 24,
					"y": 20,
					"width": 50,
					"height": 17
				},
				"visible": true,
				"metadata": {
					"opacity": 1,
					"string": "Group",
					"css": [
						"/* project: */",
						"font-family: SourceSansPro-Semibold;",
						"font-size: 19px;",
						"color: #5C5C5C;",
						"letter-spacing: 0;"
					]
				},
				"image": {
					"path": "images/Layer-Group_6-mzhfn0e5.png",
					"frame": {
						"x": 24,
						"y": 20,
						"width": 50,
						"height": 17
					}
				},
				"children": []
			},
			{
				"objectId": "ADF0E4F0-E1EC-40D5-89BA-EADE7F1139D2",
				"kind": "text",
				"name": "Group_5_Copy_2",
				"originalName": "Group 5 Copy 2",
				"maskFrame": null,
				"layerFrame": {
					"x": 45,
					"y": 60,
					"width": 47,
					"height": 14
				},
				"visible": true,
				"metadata": {
					"opacity": 1,
					"string": "Home",
					"css": [
						"/* repository: */",
						"font-family: SourceSansPro-Semibold;",
						"font-size: 19px;",
						"color: #5C5C5C;",
						"letter-spacing: 0;"
					]
				},
				"image": {
					"path": "images/Layer-Group_5_Copy_2-qurgmeu0.png",
					"frame": {
						"x": 45,
						"y": 60,
						"width": 47,
						"height": 14
					}
				},
				"children": []
			},
			{
				"objectId": "B45530AC-435A-4989-BFBD-DDF33C915BDE",
				"kind": "text",
				"name": "Group_5_Copy",
				"originalName": "Group 5 Copy",
				"maskFrame": null,
				"layerFrame": {
					"x": 44,
					"y": 99,
					"width": 59,
					"height": 18
				},
				"visible": true,
				"metadata": {
					"opacity": 1,
					"string": "Activity",
					"css": [
						"/* repository: */",
						"font-family: SourceSansPro-Regular;",
						"font-size: 19px;",
						"color: #5C5C5C;",
						"letter-spacing: 0;"
					]
				},
				"image": {
					"path": "images/Layer-Group_5_Copy-qjq1ntmw.png",
					"frame": {
						"x": 44,
						"y": 99,
						"width": 59,
						"height": 18
					}
				},
				"children": []
			},
			{
				"objectId": "0428228A-3633-40E1-92F1-150C05522027",
				"kind": "text",
				"name": "Group_5",
				"originalName": "Group 5",
				"maskFrame": null,
				"layerFrame": {
					"x": 25,
					"y": 140,
					"width": 47,
					"height": 14
				},
				"visible": true,
				"metadata": {
					"opacity": 1,
					"string": "Issues",
					"css": [
						"/* repository: */",
						"font-family: SourceSansPro-Regular;",
						"font-size: 19px;",
						"color: #5C5C5C;",
						"letter-spacing: 0;"
					]
				},
				"image": {
					"path": "images/Layer-Group_5-mdqyodiy.png",
					"frame": {
						"x": 25,
						"y": 140,
						"width": 47,
						"height": 14
					}
				},
				"children": []
			},
			{
				"objectId": "5EBF2ED4-EA38-482E-8EBD-0A152E76A785",
				"kind": "group",
				"name": "Issues",
				"originalName": "Issues",
				"maskFrame": null,
				"layerFrame": {
					"x": 0,
					"y": 87,
					"width": 219,
					"height": 200
				},
				"visible": true,
				"metadata": {
					"opacity": 1
				},
				"children": [
					{
						"objectId": "6B06CD8E-D0EC-43F1-AD54-330643FDC172",
						"kind": "group",
						"name": "title",
						"originalName": "title",
						"maskFrame": null,
						"layerFrame": {
							"x": 0,
							"y": 87,
							"width": 219,
							"height": 40
						},
						"visible": true,
						"metadata": {
							"opacity": 1
						},
						"children": [
							{
								"objectId": "C57DD8A3-3F1D-40B0-972E-9E8FB3E25315",
								"kind": "group",
								"name": "selector",
								"originalName": "selector",
								"maskFrame": null,
								"layerFrame": {
									"x": 0,
									"y": 87,
									"width": 219,
									"height": 40
								},
								"visible": false,
								"metadata": {
									"opacity": 1
								},
								"image": {
									"path": "images/Layer-selector-qzu3req4.png",
									"frame": {
										"x": 0,
										"y": 87,
										"width": 219,
										"height": 40
									}
								},
								"children": []
							}
						]
					},
					{
						"objectId": "167E9056-7724-432F-9237-8B76A0499F17",
						"kind": "group",
						"name": "sub_elements",
						"originalName": "sub_elements",
						"maskFrame": null,
						"layerFrame": {
							"x": 0,
							"y": 127,
							"width": 219,
							"height": 160
						},
						"visible": false,
						"metadata": {
							"opacity": 1
						},
						"children": [
							{
								"objectId": "037BD736-5921-4922-BEC2-9F36668F0EB4",
								"kind": "group",
								"name": "list",
								"originalName": "list",
								"maskFrame": null,
								"layerFrame": {
									"x": 0,
									"y": 127,
									"width": 219,
									"height": 40
								},
								"visible": true,
								"metadata": {
									"opacity": 1
								},
								"children": [
									{
										"objectId": "D37C810C-7FCB-4C6B-B0B4-B0BFAEFB7AD8",
										"kind": "group",
										"name": "unselected",
										"originalName": "unselected",
										"maskFrame": null,
										"layerFrame": {
											"x": 45,
											"y": 140,
											"width": 24,
											"height": 14
										},
										"visible": true,
										"metadata": {
											"opacity": 1
										},
										"children": [
											{
												"objectId": "E1721B96-45FB-4A9A-9653-C751F04A8E24",
												"kind": "text",
												"name": "title1",
												"originalName": "title",
												"maskFrame": null,
												"layerFrame": {
													"x": 45,
													"y": 140,
													"width": 24,
													"height": 14
												},
												"visible": true,
												"metadata": {
													"opacity": 1,
													"string": "List",
													"css": [
														"/* list: */",
														"font-family: SourceSansPro-Regular;",
														"font-size: 17px;",
														"color: #5C5C5C;",
														"letter-spacing: 0;"
													]
												},
												"image": {
													"path": "images/Layer-title-rte3mjfc.png",
													"frame": {
														"x": 45,
														"y": 140,
														"width": 24,
														"height": 14
													}
												},
												"children": []
											}
										]
									},
									{
										"objectId": "69A151B1-5C61-48A0-8100-E518478720A2",
										"kind": "group",
										"name": "selected",
										"originalName": "selected",
										"maskFrame": null,
										"layerFrame": {
											"x": 0,
											"y": 127,
											"width": 219,
											"height": 40
										},
										"visible": true,
										"metadata": {
											"opacity": 1
										},
										"children": [
											{
												"objectId": "520158CF-2569-44B8-8AB8-4AD4BA4753AA",
												"kind": "text",
												"name": "title2",
												"originalName": "title",
												"maskFrame": null,
												"layerFrame": {
													"x": 45,
													"y": 140,
													"width": 25,
													"height": 14
												},
												"visible": true,
												"metadata": {
													"opacity": 1,
													"string": "List",
													"css": [
														"/* list: */",
														"font-family: SourceSansPro-Semibold;",
														"font-size: 17px;",
														"color: #5C5C5C;",
														"letter-spacing: 0;"
													]
												},
												"image": {
													"path": "images/Layer-title-ntiwmtu4.png",
													"frame": {
														"x": 45,
														"y": 140,
														"width": 25,
														"height": 14
													}
												},
												"children": []
											},
											{
												"objectId": "BA699F73-E208-4F98-9B35-3BBF2425A935",
												"kind": "group",
												"name": "selector1",
												"originalName": "selector",
												"maskFrame": null,
												"layerFrame": {
													"x": 0,
													"y": 127,
													"width": 219,
													"height": 40
												},
												"visible": true,
												"metadata": {
													"opacity": 1
												},
												"image": {
													"path": "images/Layer-selector-qke2otlg.png",
													"frame": {
														"x": 0,
														"y": 127,
														"width": 219,
														"height": 40
													}
												},
												"children": []
											}
										]
									}
								]
							},
							{
								"objectId": "CD08DB15-1F2C-42C9-A4B9-72B295F50ABC",
								"kind": "group",
								"name": "board",
								"originalName": "board",
								"maskFrame": null,
								"layerFrame": {
									"x": 45,
									"y": 180,
									"width": 41,
									"height": 14
								},
								"visible": true,
								"metadata": {
									"opacity": 1
								},
								"children": [
									{
										"objectId": "24E34458-40F3-4CB2-9389-C826AC0018BA",
										"kind": "group",
										"name": "unselected1",
										"originalName": "unselected",
										"maskFrame": null,
										"layerFrame": {
											"x": 45,
											"y": 180,
											"width": 41,
											"height": 14
										},
										"visible": true,
										"metadata": {
											"opacity": 1
										},
										"children": [
											{
												"objectId": "18A5F888-D63F-4725-818A-43EB121009CF",
												"kind": "text",
												"name": "title3",
												"originalName": "title",
												"maskFrame": null,
												"layerFrame": {
													"x": 45,
													"y": 180,
													"width": 41,
													"height": 14
												},
												"visible": true,
												"metadata": {
													"opacity": 1,
													"string": "Board",
													"css": [
														"/* list: */",
														"font-family: SourceSansPro-Regular;",
														"font-size: 17px;",
														"color: #5C5C5C;",
														"letter-spacing: 0;"
													]
												},
												"image": {
													"path": "images/Layer-title-mthbnuy4.png",
													"frame": {
														"x": 45,
														"y": 180,
														"width": 41,
														"height": 14
													}
												},
												"children": []
											}
										]
									},
									{
										"objectId": "C18B3358-49B0-4B3A-B217-7476F0C532B8",
										"kind": "group",
										"name": "selected1",
										"originalName": "selected",
										"maskFrame": null,
										"layerFrame": {
											"x": 0,
											"y": 167,
											"width": 219,
											"height": 40
										},
										"visible": false,
										"metadata": {
											"opacity": 1
										},
										"children": [
											{
												"objectId": "4FAA26BB-707C-4C27-B56C-B8AE442B925E",
												"kind": "text",
												"name": "title4",
												"originalName": "title",
												"maskFrame": null,
												"layerFrame": {
													"x": 45,
													"y": 180,
													"width": 42,
													"height": 14
												},
												"visible": true,
												"metadata": {
													"opacity": 1,
													"string": "Board",
													"css": [
														"/* list: */",
														"font-family: SourceSansPro-Semibold;",
														"font-size: 17px;",
														"color: #5C5C5C;",
														"letter-spacing: 0;"
													]
												},
												"image": {
													"path": "images/Layer-title-nezbqti2.png",
													"frame": {
														"x": 45,
														"y": 180,
														"width": 42,
														"height": 14
													}
												},
												"children": []
											},
											{
												"objectId": "904A1FEC-53C2-425B-8EEE-D45A595BDF35",
												"kind": "group",
												"name": "selector2",
												"originalName": "selector",
												"maskFrame": null,
												"layerFrame": {
													"x": 0,
													"y": 167,
													"width": 219,
													"height": 40
												},
												"visible": true,
												"metadata": {
													"opacity": 1
												},
												"image": {
													"path": "images/Layer-selector-ota0qtfg.png",
													"frame": {
														"x": 0,
														"y": 167,
														"width": 219,
														"height": 40
													}
												},
												"children": []
											}
										]
									}
								]
							},
							{
								"objectId": "1D277E58-094C-4675-8BF8-BF4A0EF100B2",
								"kind": "group",
								"name": "labels",
								"originalName": "labels",
								"maskFrame": null,
								"layerFrame": {
									"x": 45,
									"y": 220,
									"width": 45,
									"height": 14
								},
								"visible": true,
								"metadata": {
									"opacity": 1
								},
								"children": [
									{
										"objectId": "FFC42686-5914-47F0-B27A-400B091A2240",
										"kind": "group",
										"name": "unselected2",
										"originalName": "unselected",
										"maskFrame": null,
										"layerFrame": {
											"x": 45,
											"y": 220,
											"width": 45,
											"height": 14
										},
										"visible": true,
										"metadata": {
											"opacity": 1
										},
										"children": [
											{
												"objectId": "895E9D5D-4902-4758-B808-94C9B7B2E101",
												"kind": "text",
												"name": "title5",
												"originalName": "title",
												"maskFrame": null,
												"layerFrame": {
													"x": 45,
													"y": 220,
													"width": 45,
													"height": 14
												},
												"visible": true,
												"metadata": {
													"opacity": 1,
													"string": "Labels",
													"css": [
														"/* list: */",
														"font-family: SourceSansPro-Regular;",
														"font-size: 17px;",
														"color: #5C5C5C;",
														"letter-spacing: 0;"
													]
												},
												"image": {
													"path": "images/Layer-title-odk1rtle.png",
													"frame": {
														"x": 45,
														"y": 220,
														"width": 45,
														"height": 14
													}
												},
												"children": []
											}
										]
									},
									{
										"objectId": "92BC5429-F475-4FCE-988C-3F059BFEE330",
										"kind": "group",
										"name": "selected2",
										"originalName": "selected",
										"maskFrame": null,
										"layerFrame": {
											"x": 0,
											"y": 207,
											"width": 219,
											"height": 40
										},
										"visible": false,
										"metadata": {
											"opacity": 1
										},
										"children": [
											{
												"objectId": "921BEC81-D9BD-403C-9BE7-12104453803C",
												"kind": "text",
												"name": "title6",
												"originalName": "title",
												"maskFrame": null,
												"layerFrame": {
													"x": 45,
													"y": 220,
													"width": 46,
													"height": 14
												},
												"visible": true,
												"metadata": {
													"opacity": 1,
													"string": "Labels",
													"css": [
														"/* list: */",
														"font-family: SourceSansPro-Semibold;",
														"font-size: 17px;",
														"color: #5C5C5C;",
														"letter-spacing: 0;"
													]
												},
												"image": {
													"path": "images/Layer-title-otixqkvd.png",
													"frame": {
														"x": 45,
														"y": 220,
														"width": 46,
														"height": 14
													}
												},
												"children": []
											},
											{
												"objectId": "796893AB-5AE9-478E-88D5-ADCFDA4C3FFC",
												"kind": "group",
												"name": "selector3",
												"originalName": "selector",
												"maskFrame": null,
												"layerFrame": {
													"x": 0,
													"y": 207,
													"width": 219,
													"height": 40
												},
												"visible": true,
												"metadata": {
													"opacity": 1
												},
												"image": {
													"path": "images/Layer-selector-nzk2odkz.png",
													"frame": {
														"x": 0,
														"y": 207,
														"width": 219,
														"height": 40
													}
												},
												"children": []
											}
										]
									}
								]
							},
							{
								"objectId": "E96003F0-F00E-4F6D-B531-33063D11251F",
								"kind": "group",
								"name": "milestones",
								"originalName": "milestones",
								"maskFrame": null,
								"layerFrame": {
									"x": 45,
									"y": 260,
									"width": 75,
									"height": 14
								},
								"visible": true,
								"metadata": {
									"opacity": 1
								},
								"children": [
									{
										"objectId": "90FF2E67-0644-4637-8ED3-DDA37CB1AF59",
										"kind": "group",
										"name": "unselected3",
										"originalName": "unselected",
										"maskFrame": null,
										"layerFrame": {
											"x": 45,
											"y": 260,
											"width": 75,
											"height": 14
										},
										"visible": true,
										"metadata": {
											"opacity": 1
										},
										"children": [
											{
												"objectId": "CDA7C73C-7326-4D75-9AE8-2B718CF06C38",
												"kind": "text",
												"name": "title7",
												"originalName": "title",
												"maskFrame": null,
												"layerFrame": {
													"x": 45,
													"y": 260,
													"width": 75,
													"height": 14
												},
												"visible": true,
												"metadata": {
													"opacity": 1,
													"string": "Milestones",
													"css": [
														"/* list: */",
														"font-family: SourceSansPro-Regular;",
														"font-size: 17px;",
														"color: #5C5C5C;",
														"letter-spacing: 0;"
													]
												},
												"image": {
													"path": "images/Layer-title-q0rbn0m3.png",
													"frame": {
														"x": 45,
														"y": 260,
														"width": 75,
														"height": 14
													}
												},
												"children": []
											}
										]
									},
									{
										"objectId": "FF39419E-AA69-4897-B5F7-EF85E563880D",
										"kind": "group",
										"name": "selected3",
										"originalName": "selected",
										"maskFrame": null,
										"layerFrame": {
											"x": 0,
											"y": 247,
											"width": 219,
											"height": 40
										},
										"visible": false,
										"metadata": {
											"opacity": 1
										},
										"children": [
											{
												"objectId": "2480504D-08A6-4C1B-8EAD-66D82CC2BD95",
												"kind": "text",
												"name": "title8",
												"originalName": "title",
												"maskFrame": null,
												"layerFrame": {
													"x": 45,
													"y": 260,
													"width": 77,
													"height": 14
												},
												"visible": true,
												"metadata": {
													"opacity": 1,
													"string": "Milestones",
													"css": [
														"/* list: */",
														"font-family: SourceSansPro-Semibold;",
														"font-size: 17px;",
														"color: #5C5C5C;",
														"letter-spacing: 0;"
													]
												},
												"image": {
													"path": "images/Layer-title-mjq4mduw.png",
													"frame": {
														"x": 45,
														"y": 260,
														"width": 77,
														"height": 14
													}
												},
												"children": []
											},
											{
												"objectId": "76392C40-C0A0-48D6-9BCC-B230AE076985",
												"kind": "group",
												"name": "selector4",
												"originalName": "selector",
												"maskFrame": null,
												"layerFrame": {
													"x": 0,
													"y": 247,
													"width": 219,
													"height": 40
												},
												"visible": true,
												"metadata": {
													"opacity": 1
												},
												"image": {
													"path": "images/Layer-selector-nzyzotjd.png",
													"frame": {
														"x": 0,
														"y": 247,
														"width": 219,
														"height": 40
													}
												},
												"children": []
											}
										]
									}
								]
							}
						]
					},
					{
						"objectId": "6E73E9F9-0EFC-4DC6-AF62-C8AB3AE4D05C",
						"kind": "group",
						"name": "bg4",
						"originalName": "bg",
						"maskFrame": null,
						"layerFrame": {
							"x": 0,
							"y": 87,
							"width": 219,
							"height": 200
						},
						"visible": false,
						"metadata": {
							"opacity": 1
						},
						"image": {
							"path": "images/Layer-bg-nku3m0u5.png",
							"frame": {
								"x": 0,
								"y": 87,
								"width": 219,
								"height": 200
							}
						},
						"children": []
					}
				]
			},
			{
				"objectId": "0E73EE1C-C569-4FCB-8DB1-70CAE61DE72B",
				"kind": "text",
				"name": "Group_4",
				"originalName": "Group 4",
				"maskFrame": null,
				"layerFrame": {
					"x": 25,
					"y": 180,
					"width": 124,
					"height": 18
				},
				"visible": true,
				"metadata": {
					"opacity": 1,
					"string": "Merge Requests",
					"css": [
						"/* merge_requests: */",
						"font-family: SourceSansPro-Regular;",
						"font-size: 19px;",
						"color: #5C5C5C;",
						"letter-spacing: 0;"
					]
				},
				"image": {
					"path": "images/Layer-Group_4-meu3m0vf.png",
					"frame": {
						"x": 25,
						"y": 180,
						"width": 124,
						"height": 18
					}
				},
				"children": []
			},
			{
				"objectId": "DACFDB8B-77B3-4162-961D-E9DB8151BACF",
				"kind": "text",
				"name": "Group_3",
				"originalName": "Group 3",
				"maskFrame": null,
				"layerFrame": {
					"x": 25,
					"y": 219,
					"width": 72,
					"height": 15
				},
				"visible": true,
				"metadata": {
					"opacity": 1,
					"string": "Members",
					"css": [
						"/* pipelines: */",
						"font-family: SourceSansPro-Regular;",
						"font-size: 19px;",
						"color: #5C5C5C;",
						"letter-spacing: 0;"
					]
				},
				"image": {
					"path": "images/Layer-Group_3-refdrkrc.png",
					"frame": {
						"x": 25,
						"y": 219,
						"width": 72,
						"height": 15
					}
				},
				"children": []
			},
			{
				"objectId": "AF5AAF10-49B7-4E4B-B652-40A0E0827EEF",
				"kind": "text",
				"name": "Group_2",
				"originalName": "Group 2",
				"maskFrame": null,
				"layerFrame": {
					"x": 25,
					"y": 259,
					"width": 176,
					"height": 18
				},
				"visible": true,
				"metadata": {
					"opacity": 1,
					"string": "Contribution Analytics",
					"css": [
						"/* snippets: */",
						"font-family: SourceSansPro-Regular;",
						"font-size: 19px;",
						"color: #5C5C5C;",
						"letter-spacing: 0;"
					]
				},
				"image": {
					"path": "images/Layer-Group_2-quy1qufg.png",
					"frame": {
						"x": 25,
						"y": 259,
						"width": 176,
						"height": 18
					}
				},
				"children": []
			},
			{
				"objectId": "212FF770-9A8A-413A-A938-88074AEFF369",
				"kind": "text",
				"name": "Group3",
				"originalName": "Group",
				"maskFrame": null,
				"layerFrame": {
					"x": 24,
					"y": 299,
					"width": 65,
					"height": 19
				},
				"visible": true,
				"metadata": {
					"opacity": 1,
					"string": "Settings",
					"css": [
						"/* settings: */",
						"font-family: SourceSansPro-Regular;",
						"font-size: 19px;",
						"color: #5C5C5C;",
						"letter-spacing: 0;"
					]
				},
				"image": {
					"path": "images/Layer-Group-mjeyrky3.png",
					"frame": {
						"x": 24,
						"y": 299,
						"width": 65,
						"height": 19
					}
				},
				"children": []
			},
			{
				"objectId": "87B2ADA9-0B48-4C56-85EE-4585324E7828",
				"kind": "group",
				"name": "Group_7",
				"originalName": "Group 7",
				"maskFrame": null,
				"layerFrame": {
					"x": 1,
					"y": 47,
					"width": 219,
					"height": 40
				},
				"visible": true,
				"metadata": {
					"opacity": 1
				},
				"image": {
					"path": "images/Layer-Group_7-oddcmkfe.png",
					"frame": {
						"x": 1,
						"y": 47,
						"width": 219,
						"height": 40
					}
				},
				"children": []
			},
			{
				"objectId": "33A86B2A-F03C-4F0A-888C-B43DA10302C0",
				"kind": "group",
				"name": "Group_8",
				"originalName": "Group 8",
				"maskFrame": null,
				"layerFrame": {
					"x": 0,
					"y": 6,
					"width": 220,
					"height": 120
				},
				"visible": true,
				"metadata": {
					"opacity": 1
				},
				"image": {
					"path": "images/Layer-Group_8-mznbodzc.png",
					"frame": {
						"x": 0,
						"y": 6,
						"width": 220,
						"height": 120
					}
				},
				"children": []
			},
			{
				"objectId": "2ACDC214-984A-45BA-A733-86D69AA99419",
				"kind": "group",
				"name": "bg3",
				"originalName": "bg",
				"maskFrame": null,
				"layerFrame": {
					"x": 0,
					"y": 0,
					"width": 220,
					"height": 750
				},
				"visible": true,
				"metadata": {
					"opacity": 1
				},
				"image": {
					"path": "images/Layer-bg-mkfdremy.png",
					"frame": {
						"x": 0,
						"y": 0,
						"width": 220,
						"height": 750
					}
				},
				"children": []
			}
		]
	}
]