{
  "_class": "group",
  "do_objectID": "07494FA3-C7ED-4DC2-91A4-0870EE781948",
  "exportOptions": {
    "_class": "exportOptions",
    "exportFormats": [
    ],
    "includedLayerIds": [
    ],
    "layerOptions": 0,
    "shouldTrim": false
  },
  "frame": {
    "_class": "rect",
    "constrainProportions": false,
    "height": 28,
    "width": 527,
    "x": 607,
    "y": 1402
  },
  "hasClickThrough": false,
  "isFlippedHorizontal": false,
  "isFlippedVertical": false,
  "isLocked": false,
  "isVisible": true,
  "layerListExpandedType": 2,
  "layers": [
    {
      "class": "shapeGroup",
      "id": "92431670-31AF-4F43-911D-CDD236E6039B"
    },
    {
      "class": "shapeGroup",
      "id": "C8F54EF9-3A74-4167-8822-41202D14FA33"
    },
    {
      "class": "shapeGroup",
      "id": "77006B39-DD27-4A48-AD5D-2A417D86E3DF"
    },
    {
      "class": "shapeGroup",
      "id": "C51B00A1-F2C4-4455-B4E4-2AB35B2382F9"
    },
    {
      "class": "text",
      "id": "93CEC42F-45AA-4397-8488-6E4AF5FD02E9"
    }
  ],
  "name": "new_epic copy 18",
  "nameIsFixed": true,
  "resizingConstraint": 63,
  "resizingType": 0,
  "rotation": 0,
  "shouldBreakMaskChain": false,
  "style": {
    "_class": "style",
    "endDecorationType": 0,
    "miterLimit": 10,
    "startDecorationType": 0
  }
}