{
  "_class": "shapePath",
  "booleanOperation": 0,
  "do_objectID": "19ED29B4-3925-42F4-8241-BB550E03FDFA",
  "edited": true,
  "exportOptions": {
    "_class": "exportOptions",
    "exportFormats": [
    ],
    "includedLayerIds": [
    ],
    "layerOptions": 0,
    "shouldTrim": false
  },
  "frame": {
    "_class": "rect",
    "constrainProportions": false,
    "height": 6,
    "width": 6,
    "x": 7,
    "y": 1
  },
  "isFlippedHorizontal": false,
  "isFlippedVertical": false,
  "isLocked": false,
  "isVisible": true,
  "layerListExpandedType": 0,
  "name": "Rectangle",
  "nameIsFixed": false,
  "path": {
    "_class": "path",
    "isClosed": true,
    "pointRadiusBehaviour": 1,
    "points": [
      {
        "_class": "curvePoint",
        "cornerRadius": 0,
        "curveFrom": "{1, 0.66666666666666663}",
        "curveMode": 1,
        "curveTo": "{1, 0.66666666666666663}",
        "hasCurveFrom": false,
        "hasCurveTo": false,
        "point": "{1, 0.66666666666666663}"
      },
      {
        "_class": "curvePoint",
        "cornerRadius": 0,
        "curveFrom": "{0.33333333333333331, 0.66666666666666663}",
        "curveMode": 1,
        "curveTo": "{0.33333333333333331, 0.66666666666666663}",
        "hasCurveFrom": false,
        "hasCurveTo": false,
        "point": "{0.33333333333333331, 0.66666666666666663}"
      },
      {
        "_class": "curvePoint",
        "cornerRadius": 0,
        "curveFrom": "{0.33333333333333331, 0}",
        "curveMode": 1,
        "curveTo": "{0.33333333333333331, 0}",
        "hasCurveFrom": false,
        "hasCurveTo": false,
        "point": "{0.33333333333333331, 0}"
      },
      {
        "_class": "curvePoint",
        "cornerRadius": 0,
        "curveFrom": "{0, 0}",
        "curveMode": 1,
        "curveTo": "{0, 0}",
        "hasCurveFrom": false,
        "hasCurveTo": false,
        "point": "{0, 0}"
      },
      {
        "_class": "curvePoint",
        "cornerRadius": 0,
        "curveFrom": "{0, 0.85076158327693152}",
        "curveMode": 4,
        "curveTo": "{0, 0.66666666666666663}",
        "hasCurveFrom": true,
        "hasCurveTo": false,
        "point": "{0, 0.66666666666666663}"
      },
      {
        "_class": "curvePoint",
        "cornerRadius": 0,
        "curveFrom": "{0.33333333333333331, 1}",
        "curveMode": 4,
        "curveTo": "{0.14923841672306862, 1}",
        "hasCurveFrom": false,
        "hasCurveTo": true,
        "point": "{0.33333333333333331, 1}"
      },
      {
        "_class": "curvePoint",
        "cornerRadius": 0,
        "curveFrom": "{1, 1}",
        "curveMode": 1,
        "curveTo": "{1, 1}",
        "hasCurveFrom": false,
        "hasCurveTo": false,
        "point": "{1, 1}"
      }
    ]
  },
  "resizingConstraint": 63,
  "resizingType": 0,
  "rotation": 0,
  "shouldBreakMaskChain": false
}